info face=font-arial size=22 bold=0 italic=0 charset= unicode= stretchH=100 smooth=1 aa=1 padding=2,2,2,2 spacing=0,0 outline=0
common lineHeight=25 base=20 scaleW=90 scaleH=491 pages=1 packed=0
page id=0 file="font-arial.png"
chars count=59
char id=272 x=2 y=2 width=20 height=21 xoffset=0 yoffset=4 xadvance=16 page=0 chnl=15
char id=7845 x=2 y=25 width=16 height=25 xoffset=1 yoffset=0 xadvance=12 page=0 chnl=15
char id=117 x=2 y=52 width=14 height=17 xoffset=1 yoffset=8 xadvance=12 page=0 chnl=15
char id=7897 x=2 y=71 width=16 height=25 xoffset=1 yoffset=4 xadvance=12 page=0 chnl=15
char id=105 x=2 y=98 width=7 height=21 xoffset=1 yoffset=4 xadvance=5 page=0 chnl=15
char id=273 x=2 y=121 width=17 height=21 xoffset=1 yoffset=4 xadvance=12 page=0 chnl=15
char id=417 x=18 y=52 width=18 height=17 xoffset=1 yoffset=8 xadvance=14 page=0 chnl=15
char id=110 x=11 y=98 width=15 height=17 xoffset=1 yoffset=8 xadvance=12 page=0 chnl=15
char id=99 x=20 y=25 width=15 height=17 xoffset=1 yoffset=8 xadvance=11 page=0 chnl=15
char id=104 x=24 y=2 width=15 height=21 xoffset=1 yoffset=4 xadvance=12 page=0 chnl=15
char id=7885 x=37 y=25 width=16 height=21 xoffset=1 yoffset=8 xadvance=12 page=0 chnl=15
char id=107 x=41 y=2 width=15 height=21 xoffset=1 yoffset=4 xadvance=11 page=0 chnl=15
char id=7875 x=20 y=71 width=16 height=25 xoffset=1 yoffset=0 xadvance=12 page=0 chnl=15
char id=67 x=2 y=144 width=19 height=22 xoffset=1 yoffset=4 xadvance=16 page=0 chnl=15
char id=75 x=21 y=117 width=18 height=21 xoffset=2 yoffset=4 xadvance=15 page=0 chnl=15
char id=77 x=38 y=48 width=20 height=21 xoffset=2 yoffset=4 xadvance=18 page=0 chnl=15
char id=7913 x=55 y=25 width=18 height=21 xoffset=1 yoffset=4 xadvance=15 page=0 chnl=15
char id=432 x=28 y=98 width=18 height=17 xoffset=1 yoffset=8 xadvance=15 page=0 chnl=15
char id=7907 x=58 y=2 width=18 height=21 xoffset=1 yoffset=8 xadvance=14 page=0 chnl=15
char id=109 x=38 y=71 width=21 height=17 xoffset=1 yoffset=8 xadvance=18 page=0 chnl=15
char id=46 x=60 y=48 width=8 height=8 xoffset=2 yoffset=18 xadvance=6 page=0 chnl=15
char id=40 x=2 y=168 width=11 height=26 xoffset=1 yoffset=4 xadvance=7 page=0 chnl=15
char id=41 x=2 y=196 width=11 height=26 xoffset=1 yoffset=4 xadvance=7 page=0 chnl=15
char id=123 x=2 y=224 width=12 height=26 xoffset=1 yoffset=4 xadvance=7 page=0 chnl=15
char id=125 x=15 y=168 width=12 height=26 xoffset=1 yoffset=4 xadvance=7 page=0 chnl=15
char id=44 x=60 y=58 width=8 height=11 xoffset=2 yoffset=18 xadvance=6 page=0 chnl=15
char id=59 x=23 y=140 width=8 height=20 xoffset=2 yoffset=8 xadvance=6 page=0 chnl=15
char id=33 x=15 y=196 width=8 height=21 xoffset=2 yoffset=4 xadvance=6 page=0 chnl=15
char id=64 x=2 y=252 width=25 height=26 xoffset=1 yoffset=4 xadvance=22 page=0 chnl=15
char id=35 x=16 y=219 width=17 height=22 xoffset=0 yoffset=4 xadvance=12 page=0 chnl=15
char id=36 x=29 y=162 width=16 height=25 xoffset=1 yoffset=3 xadvance=12 page=0 chnl=15
char id=37 x=29 y=189 width=22 height=22 xoffset=1 yoffset=4 xadvance=20 page=0 chnl=15
char id=94 x=33 y=140 width=15 height=14 xoffset=1 yoffset=4 xadvance=10 page=0 chnl=15
char id=38 x=47 y=156 width=18 height=22 xoffset=1 yoffset=4 xadvance=15 page=0 chnl=15
char id=42 x=41 y=117 width=12 height=12 xoffset=1 yoffset=4 xadvance=9 page=0 chnl=15
char id=60 x=50 y=131 width=16 height=16 xoffset=1 yoffset=7 xadvance=13 page=0 chnl=15
char id=62 x=48 y=90 width=16 height=16 xoffset=1 yoffset=7 xadvance=13 page=0 chnl=15
char id=34 x=61 y=71 width=11 height=11 xoffset=1 yoffset=4 xadvance=8 page=0 chnl=15
char id=58 x=70 y=48 width=8 height=17 xoffset=2 yoffset=8 xadvance=6 page=0 chnl=15
char id=91 x=78 y=2 width=10 height=25 xoffset=1 yoffset=4 xadvance=6 page=0 chnl=15
char id=93 x=66 y=84 width=9 height=25 xoffset=0 yoffset=4 xadvance=6 page=0 chnl=15
char id=49 x=2 y=280 width=11 height=21 xoffset=2 yoffset=4 xadvance=12 page=0 chnl=15
char id=50 x=2 y=303 width=16 height=21 xoffset=1 yoffset=4 xadvance=12 page=0 chnl=15
char id=51 x=15 y=280 width=16 height=21 xoffset=1 yoffset=4 xadvance=12 page=0 chnl=15
char id=52 x=29 y=243 width=16 height=21 xoffset=0 yoffset=4 xadvance=12 page=0 chnl=15
char id=53 x=35 y=213 width=16 height=21 xoffset=1 yoffset=4 xadvance=12 page=0 chnl=15
char id=54 x=2 y=326 width=16 height=21 xoffset=1 yoffset=4 xadvance=12 page=0 chnl=15
char id=55 x=2 y=349 width=16 height=21 xoffset=1 yoffset=4 xadvance=12 page=0 chnl=15
char id=56 x=2 y=372 width=16 height=21 xoffset=1 yoffset=4 xadvance=12 page=0 chnl=15
char id=57 x=2 y=395 width=16 height=21 xoffset=1 yoffset=4 xadvance=12 page=0 chnl=15
char id=48 x=2 y=418 width=16 height=21 xoffset=1 yoffset=4 xadvance=12 page=0 chnl=15
char id=7848 x=2 y=441 width=20 height=25 xoffset=0 yoffset=0 xadvance=15 page=0 chnl=15
char id=80 x=2 y=468 width=17 height=21 xoffset=2 yoffset=4 xadvance=15 page=0 chnl=15
char id=242 x=21 y=468 width=16 height=21 xoffset=1 yoffset=4 xadvance=12 page=0 chnl=15
char id=103 x=20 y=303 width=15 height=22 xoffset=1 yoffset=8 xadvance=12 page=0 chnl=15
char id=7849 x=33 y=266 width=16 height=25 xoffset=1 yoffset=0 xadvance=12 page=0 chnl=15
char id=112 x=47 y=236 width=15 height=21 xoffset=1 yoffset=8 xadvance=12 page=0 chnl=15
char id=72 x=53 y=180 width=18 height=21 xoffset=2 yoffset=4 xadvance=16 page=0 chnl=15
char id=7879 x=67 y=149 width=16 height=25 xoffset=1 yoffset=4 xadvance=12 page=0 chnl=15
char id=32 x=0 y=0 width=0 height=0 xoffset=1 yoffset=4 xadvance=6 page=0 chnl=15
kernings count=4
kerning first=49 second=49 amount=-2
kerning first=80 second=32 amount=0
kerning first=80 second=44 amount=-3
kerning first=80 second=46 amount=-3