info face=font-num-room size=19 bold=0 italic=0 charset= unicode= stretchH=100 smooth=1 aa=1 padding=1,1,1,1 spacing=0,0 outline=0
common lineHeight=25 base=15 scaleW=160 scaleH=20 pages=1 packed=0
page id=0 file="font-num-room.png"
chars count=11
char id=43 x=1 y=1 width=14 height=15 xoffset=2 yoffset=3 xadvance=16 page=0 chnl=15
char id=49 x=16 y=1 width=10 height=17 xoffset=2 yoffset=0 xadvance=13 page=0 chnl=15
char id=50 x=27 y=1 width=14 height=17 xoffset=1 yoffset=0 xadvance=13 page=0 chnl=15
char id=51 x=42 y=1 width=13 height=17 xoffset=1 yoffset=0 xadvance=13 page=0 chnl=15
char id=52 x=56 y=1 width=14 height=17 xoffset=1 yoffset=0 xadvance=13 page=0 chnl=15
char id=53 x=71 y=1 width=13 height=18 xoffset=2 yoffset=0 xadvance=13 page=0 chnl=15
char id=54 x=85 y=1 width=14 height=18 xoffset=1 yoffset=0 xadvance=13 page=0 chnl=15
char id=55 x=100 y=1 width=13 height=17 xoffset=2 yoffset=0 xadvance=13 page=0 chnl=15
char id=56 x=114 y=1 width=14 height=18 xoffset=1 yoffset=0 xadvance=13 page=0 chnl=15
char id=57 x=129 y=1 width=14 height=18 xoffset=1 yoffset=0 xadvance=13 page=0 chnl=15
char id=48 x=144 y=1 width=15 height=18 xoffset=0 yoffset=0 xadvance=13 page=0 chnl=15
char id=32 x=0 y=0 width=0 height=0 xoffset=0 yoffset=0 xadvance=6 page=0 chnl=15
kernings count=0