info face=font-name-game1 size=18 bold=0 italic=0 charset= unicode= stretchH=100 smooth=1 aa=1 padding=2,2,2,2 spacing=0,0 outline=0
common lineHeight=21 base=16 scaleW=97 scaleH=277 pages=1 packed=0
page id=0 file="font-name-game1.png"
chars count=62
char id=113 x=2 y=2 width=11 height=16 xoffset=0 yoffset=7 xadvance=10 page=0 chnl=15
char id=119 x=2 y=20 width=16 height=12 xoffset=0 yoffset=7 xadvance=13 page=0 chnl=15
char id=101 x=15 y=2 width=10 height=11 xoffset=0 yoffset=7 xadvance=9 page=0 chnl=15
char id=114 x=2 y=34 width=8 height=11 xoffset=1 yoffset=7 xadvance=6 page=0 chnl=15
char id=116 x=2 y=47 width=6 height=14 xoffset=0 yoffset=4 xadvance=4 page=0 chnl=15
char id=121 x=2 y=63 width=12 height=16 xoffset=0 yoffset=7 xadvance=9 page=0 chnl=15
char id=117 x=10 y=47 width=9 height=11 xoffset=1 yoffset=7 xadvance=9 page=0 chnl=15
char id=105 x=20 y=15 width=4 height=14 xoffset=1 yoffset=4 xadvance=5 page=0 chnl=15
char id=111 x=12 y=34 width=11 height=11 xoffset=0 yoffset=7 xadvance=10 page=0 chnl=15
char id=112 x=2 y=81 width=11 height=16 xoffset=1 yoffset=7 xadvance=10 page=0 chnl=15
char id=97 x=2 y=99 width=11 height=11 xoffset=0 yoffset=7 xadvance=10 page=0 chnl=15
char id=115 x=2 y=112 width=8 height=11 xoffset=1 yoffset=7 xadvance=7 page=0 chnl=15
char id=100 x=2 y=125 width=11 height=18 xoffset=0 yoffset=0 xadvance=10 page=0 chnl=15
char id=102 x=2 y=145 width=7 height=18 xoffset=1 yoffset=0 xadvance=5 page=0 chnl=15
char id=103 x=2 y=165 width=11 height=16 xoffset=0 yoffset=7 xadvance=10 page=0 chnl=15
char id=104 x=11 y=145 width=10 height=18 xoffset=1 yoffset=0 xadvance=9 page=0 chnl=15
char id=106 x=15 y=81 width=5 height=21 xoffset=1 yoffset=2 xadvance=5 page=0 chnl=15
char id=107 x=16 y=60 width=10 height=18 xoffset=1 yoffset=0 xadvance=8 page=0 chnl=15
char id=108 x=25 y=31 width=4 height=18 xoffset=1 yoffset=0 xadvance=4 page=0 chnl=15
char id=122 x=12 y=112 width=12 height=11 xoffset=0 yoffset=7 xadvance=9 page=0 chnl=15
char id=120 x=26 y=15 width=12 height=11 xoffset=0 yoffset=7 xadvance=9 page=0 chnl=15
char id=99 x=27 y=2 width=9 height=11 xoffset=0 yoffset=7 xadvance=8 page=0 chnl=15
char id=118 x=38 y=2 width=11 height=11 xoffset=0 yoffset=7 xadvance=8 page=0 chnl=15
char id=98 x=15 y=125 width=11 height=18 xoffset=1 yoffset=0 xadvance=10 page=0 chnl=15
char id=110 x=22 y=80 width=10 height=11 xoffset=1 yoffset=7 xadvance=9 page=0 chnl=15
char id=109 x=22 y=93 width=14 height=11 xoffset=1 yoffset=7 xadvance=14 page=0 chnl=15
char id=81 x=26 y=106 width=17 height=17 xoffset=0 yoffset=2 xadvance=15 page=0 chnl=15
char id=87 x=28 y=51 width=22 height=17 xoffset=0 yoffset=2 xadvance=18 page=0 chnl=15
char id=69 x=34 y=70 width=10 height=16 xoffset=1 yoffset=2 xadvance=9 page=0 chnl=15
char id=82 x=38 y=88 width=11 height=16 xoffset=1 yoffset=2 xadvance=10 page=0 chnl=15
char id=84 x=46 y=70 width=11 height=16 xoffset=0 yoffset=2 xadvance=8 page=0 chnl=15
char id=89 x=31 y=28 width=13 height=16 xoffset=0 yoffset=2 xadvance=10 page=0 chnl=15
char id=85 x=46 y=15 width=12 height=16 xoffset=1 yoffset=2 xadvance=12 page=0 chnl=15
char id=73 x=46 y=33 width=4 height=16 xoffset=1 yoffset=2 xadvance=4 page=0 chnl=15
char id=79 x=52 y=33 width=17 height=17 xoffset=0 yoffset=2 xadvance=15 page=0 chnl=15
char id=80 x=52 y=52 width=10 height=16 xoffset=1 yoffset=2 xadvance=9 page=0 chnl=15
char id=65 x=60 y=2 width=16 height=17 xoffset=0 yoffset=2 xadvance=13 page=0 chnl=15
char id=83 x=2 y=183 width=11 height=17 xoffset=1 yoffset=2 xadvance=10 page=0 chnl=15
char id=68 x=2 y=202 width=13 height=16 xoffset=1 yoffset=2 xadvance=12 page=0 chnl=15
char id=70 x=15 y=165 width=9 height=16 xoffset=1 yoffset=2 xadvance=9 page=0 chnl=15
char id=71 x=15 y=183 width=16 height=17 xoffset=0 yoffset=2 xadvance=14 page=0 chnl=15
char id=72 x=23 y=145 width=12 height=16 xoffset=1 yoffset=2 xadvance=12 page=0 chnl=15
char id=74 x=28 y=125 width=8 height=16 xoffset=0 yoffset=2 xadvance=6 page=0 chnl=15
char id=75 x=26 y=163 width=12 height=16 xoffset=1 yoffset=2 xadvance=11 page=0 chnl=15
char id=76 x=37 y=143 width=8 height=16 xoffset=1 yoffset=2 xadvance=7 page=0 chnl=15
char id=90 x=38 y=125 width=12 height=16 xoffset=0 yoffset=2 xadvance=10 page=0 chnl=15
char id=88 x=45 y=106 width=13 height=16 xoffset=0 yoffset=2 xadvance=10 page=0 chnl=15
char id=67 x=59 y=70 width=13 height=17 xoffset=1 yoffset=2 xadvance=12 page=0 chnl=15
char id=86 x=71 y=21 width=15 height=17 xoffset=-1 yoffset=2 xadvance=12 page=0 chnl=15
char id=66 x=64 y=52 width=10 height=16 xoffset=1 yoffset=2 xadvance=10 page=0 chnl=15
char id=78 x=2 y=220 width=14 height=18 xoffset=1 yoffset=2 xadvance=14 page=0 chnl=15
char id=77 x=78 y=2 width=17 height=17 xoffset=0 yoffset=2 xadvance=15 page=0 chnl=15
char id=49 x=51 y=88 width=6 height=16 xoffset=2 yoffset=2 xadvance=10 page=0 chnl=15
char id=50 x=17 y=202 width=11 height=16 xoffset=1 yoffset=2 xadvance=10 page=0 chnl=15
char id=51 x=2 y=240 width=11 height=17 xoffset=1 yoffset=2 xadvance=10 page=0 chnl=15
char id=52 x=2 y=259 width=13 height=16 xoffset=0 yoffset=3 xadvance=10 page=0 chnl=15
char id=53 x=15 y=240 width=12 height=16 xoffset=1 yoffset=2 xadvance=10 page=0 chnl=15
char id=54 x=18 y=220 width=11 height=17 xoffset=1 yoffset=2 xadvance=10 page=0 chnl=15
char id=55 x=30 y=202 width=12 height=16 xoffset=1 yoffset=2 xadvance=10 page=0 chnl=15
char id=56 x=33 y=181 width=11 height=17 xoffset=1 yoffset=2 xadvance=10 page=0 chnl=15
char id=57 x=40 y=161 width=11 height=17 xoffset=1 yoffset=2 xadvance=10 page=0 chnl=15
char id=48 x=52 y=124 width=12 height=17 xoffset=0 yoffset=2 xadvance=10 page=0 chnl=15
char id=32 x=0 y=0 width=0 height=0 xoffset=0 yoffset=2 xadvance=5 page=0 chnl=15