info face=font_vn size=20 bold=0 italic=0 charset= unicode= stretchH=100 smooth=1 aa=1 padding=2,2,2,2 spacing=0,0 outline=0
common lineHeight=22 base=19 scaleW=159 scaleH=512 pages=1 packed=0
page id=0 file="font_vn.png"
chars count=226
char id=97 x=2 y=2 width=10 height=11 xoffset=1 yoffset=8 xadvance=11 page=0 chnl=15
char id=98 x=2 y=15 width=9 height=15 xoffset=1 yoffset=4 xadvance=11 page=0 chnl=15
char id=99 x=2 y=32 width=9 height=11 xoffset=1 yoffset=8 xadvance=10 page=0 chnl=15
char id=100 x=2 y=45 width=9 height=15 xoffset=1 yoffset=4 xadvance=11 page=0 chnl=15
char id=101 x=2 y=62 width=10 height=11 xoffset=1 yoffset=8 xadvance=11 page=0 chnl=15
char id=102 x=13 y=15 width=6 height=15 xoffset=0 yoffset=4 xadvance=6 page=0 chnl=15
char id=103 x=13 y=32 width=9 height=15 xoffset=1 yoffset=8 xadvance=11 page=0 chnl=15
char id=104 x=21 y=2 width=9 height=15 xoffset=1 yoffset=4 xadvance=11 page=0 chnl=15
char id=105 x=2 y=75 width=2 height=15 xoffset=1 yoffset=4 xadvance=4 page=0 chnl=15
char id=106 x=2 y=92 width=4 height=19 xoffset=-1 yoffset=4 xadvance=4 page=0 chnl=15
char id=107 x=6 y=75 width=9 height=15 xoffset=1 yoffset=4 xadvance=10 page=0 chnl=15
char id=108 x=14 y=49 width=2 height=15 xoffset=1 yoffset=4 xadvance=4 page=0 chnl=15
char id=109 x=21 y=19 width=14 height=11 xoffset=1 yoffset=8 xadvance=17 page=0 chnl=15
char id=110 x=32 y=2 width=9 height=11 xoffset=1 yoffset=8 xadvance=11 page=0 chnl=15
char id=111 x=2 y=113 width=10 height=11 xoffset=1 yoffset=8 xadvance=11 page=0 chnl=15
char id=112 x=8 y=92 width=9 height=15 xoffset=1 yoffset=8 xadvance=11 page=0 chnl=15
char id=113 x=17 y=66 width=9 height=15 xoffset=1 yoffset=8 xadvance=11 page=0 chnl=15
char id=114 x=18 y=49 width=6 height=11 xoffset=1 yoffset=8 xadvance=7 page=0 chnl=15
char id=115 x=24 y=32 width=9 height=11 xoffset=1 yoffset=8 xadvance=10 page=0 chnl=15
char id=116 x=26 y=45 width=5 height=14 xoffset=0 yoffset=4 xadvance=6 page=0 chnl=15
char id=117 x=2 y=126 width=9 height=11 xoffset=1 yoffset=8 xadvance=11 page=0 chnl=15
char id=118 x=2 y=139 width=10 height=11 xoffset=0 yoffset=8 xadvance=10 page=0 chnl=15
char id=119 x=13 y=126 width=15 height=11 xoffset=0 yoffset=8 xadvance=14 page=0 chnl=15
char id=120 x=14 y=109 width=10 height=11 xoffset=0 yoffset=8 xadvance=10 page=0 chnl=15
char id=121 x=19 y=83 width=10 height=15 xoffset=0 yoffset=8 xadvance=10 page=0 chnl=15
char id=122 x=28 y=61 width=10 height=11 xoffset=0 yoffset=8 xadvance=10 page=0 chnl=15
char id=65 x=26 y=100 width=14 height=15 xoffset=0 yoffset=4 xadvance=13 page=0 chnl=15
char id=66 x=31 y=74 width=11 height=15 xoffset=1 yoffset=4 xadvance=13 page=0 chnl=15
char id=67 x=35 y=32 width=13 height=15 xoffset=1 yoffset=4 xadvance=14 page=0 chnl=15
char id=68 x=37 y=15 width=12 height=15 xoffset=2 yoffset=4 xadvance=14 page=0 chnl=15
char id=69 x=40 y=49 width=11 height=15 xoffset=2 yoffset=4 xadvance=13 page=0 chnl=15
char id=70 x=50 y=32 width=10 height=15 xoffset=2 yoffset=4 xadvance=12 page=0 chnl=15
char id=71 x=51 y=2 width=14 height=15 xoffset=1 yoffset=4 xadvance=16 page=0 chnl=15
char id=72 x=2 y=152 width=12 height=15 xoffset=2 yoffset=4 xadvance=14 page=0 chnl=15
char id=73 x=2 y=169 width=2 height=15 xoffset=2 yoffset=4 xadvance=6 page=0 chnl=15
char id=74 x=2 y=186 width=8 height=15 xoffset=1 yoffset=4 xadvance=10 page=0 chnl=15
char id=75 x=6 y=169 width=12 height=15 xoffset=1 yoffset=4 xadvance=13 page=0 chnl=15
char id=76 x=16 y=139 width=9 height=15 xoffset=1 yoffset=4 xadvance=11 page=0 chnl=15
char id=77 x=2 y=203 width=14 height=15 xoffset=1 yoffset=4 xadvance=17 page=0 chnl=15
char id=78 x=12 y=186 width=12 height=15 xoffset=2 yoffset=4 xadvance=14 page=0 chnl=15
char id=79 x=20 y=156 width=14 height=15 xoffset=1 yoffset=4 xadvance=16 page=0 chnl=15
char id=80 x=27 y=139 width=11 height=15 xoffset=2 yoffset=4 xadvance=13 page=0 chnl=15
char id=81 x=30 y=117 width=14 height=16 xoffset=1 yoffset=4 xadvance=16 page=0 chnl=15
char id=82 x=42 y=91 width=13 height=15 xoffset=2 yoffset=4 xadvance=14 page=0 chnl=15
char id=83 x=44 y=66 width=12 height=15 xoffset=1 yoffset=4 xadvance=13 page=0 chnl=15
char id=84 x=53 y=49 width=12 height=15 xoffset=0 yoffset=4 xadvance=12 page=0 chnl=15
char id=85 x=62 y=19 width=12 height=15 xoffset=2 yoffset=4 xadvance=14 page=0 chnl=15
char id=86 x=67 y=2 width=13 height=15 xoffset=0 yoffset=4 xadvance=13 page=0 chnl=15
char id=87 x=2 y=220 width=19 height=15 xoffset=0 yoffset=4 xadvance=19 page=0 chnl=15
char id=88 x=18 y=203 width=13 height=15 xoffset=0 yoffset=4 xadvance=13 page=0 chnl=15
char id=89 x=26 y=173 width=13 height=15 xoffset=0 yoffset=4 xadvance=13 page=0 chnl=15
char id=90 x=36 y=156 width=12 height=15 xoffset=0 yoffset=4 xadvance=12 page=0 chnl=15
char id=33 x=40 y=135 width=3 height=15 xoffset=2 yoffset=4 xadvance=6 page=0 chnl=15
char id=59 x=45 y=135 width=2 height=14 xoffset=2 yoffset=8 xadvance=6 page=0 chnl=15
char id=37 x=46 y=108 width=16 height=15 xoffset=1 yoffset=4 xadvance=18 page=0 chnl=15
char id=40 x=57 y=83 width=5 height=19 xoffset=1 yoffset=4 xadvance=7 page=0 chnl=15
char id=41 x=49 y=125 width=5 height=19 xoffset=1 yoffset=4 xadvance=7 page=0 chnl=15
char id=95 x=14 y=122 width=12 height=2 xoffset=0 yoffset=21 xadvance=11 page=0 chnl=15
char id=43 x=62 y=36 width=10 height=10 xoffset=1 yoffset=6 xadvance=12 page=0 chnl=15
char id=45 x=18 y=62 width=6 height=2 xoffset=1 yoffset=12 xadvance=7 page=0 chnl=15
char id=61 x=44 y=83 width=10 height=6 xoffset=1 yoffset=8 xadvance=12 page=0 chnl=15
char id=46 x=32 y=15 width=2 height=2 xoffset=2 yoffset=16 xadvance=6 page=0 chnl=15
char id=44 x=40 y=66 width=2 height=5 xoffset=2 yoffset=16 xadvance=6 page=0 chnl=15
char id=39 x=42 y=108 width=2 height=5 xoffset=1 yoffset=4 xadvance=4 page=0 chnl=15
char id=64 x=2 y=237 width=19 height=19 xoffset=1 yoffset=4 xadvance=20 page=0 chnl=15
char id=35 x=58 y=66 width=11 height=15 xoffset=0 yoffset=4 xadvance=11 page=0 chnl=15
char id=36 x=2 y=258 width=10 height=18 xoffset=1 yoffset=3 xadvance=11 page=0 chnl=15
char id=94 x=51 y=19 width=9 height=8 xoffset=1 yoffset=4 xadvance=9 page=0 chnl=15
char id=38 x=67 y=48 width=12 height=15 xoffset=1 yoffset=4 xadvance=13 page=0 chnl=15
char id=123 x=76 y=19 width=6 height=19 xoffset=1 yoffset=4 xadvance=7 page=0 chnl=15
char id=234 x=82 y=2 width=10 height=15 xoffset=1 yoffset=4 xadvance=11 page=0 chnl=15
char id=7871 x=2 y=278 width=10 height=18 xoffset=1 yoffset=0 xadvance=11 page=0 chnl=15
char id=7873 x=2 y=298 width=10 height=18 xoffset=1 yoffset=0 xadvance=11 page=0 chnl=15
char id=7875 x=2 y=318 width=10 height=19 xoffset=1 yoffset=0 xadvance=11 page=0 chnl=15
char id=7879 x=2 y=339 width=10 height=18 xoffset=1 yoffset=4 xadvance=11 page=0 chnl=15
char id=7877 x=2 y=359 width=10 height=18 xoffset=1 yoffset=1 xadvance=11 page=0 chnl=15
char id=233 x=2 y=379 width=10 height=15 xoffset=1 yoffset=4 xadvance=11 page=0 chnl=15
char id=232 x=2 y=396 width=10 height=15 xoffset=1 yoffset=4 xadvance=11 page=0 chnl=15
char id=7867 x=2 y=413 width=10 height=16 xoffset=1 yoffset=3 xadvance=11 page=0 chnl=15
char id=7865 x=2 y=431 width=10 height=14 xoffset=1 yoffset=8 xadvance=11 page=0 chnl=15
char id=7869 x=2 y=447 width=10 height=15 xoffset=1 yoffset=4 xadvance=11 page=0 chnl=15
char id=250 x=2 y=464 width=9 height=15 xoffset=1 yoffset=4 xadvance=11 page=0 chnl=15
char id=249 x=2 y=481 width=9 height=15 xoffset=1 yoffset=4 xadvance=11 page=0 chnl=15
char id=7911 x=13 y=464 width=9 height=16 xoffset=1 yoffset=3 xadvance=11 page=0 chnl=15
char id=7909 x=13 y=482 width=9 height=14 xoffset=1 yoffset=8 xadvance=11 page=0 chnl=15
char id=361 x=14 y=258 width=9 height=15 xoffset=1 yoffset=4 xadvance=11 page=0 chnl=15
char id=432 x=26 y=190 width=12 height=11 xoffset=1 yoffset=8 xadvance=13 page=0 chnl=15
char id=7917 x=23 y=220 width=12 height=16 xoffset=1 yoffset=3 xadvance=13 page=0 chnl=15
char id=7921 x=33 y=203 width=12 height=14 xoffset=1 yoffset=8 xadvance=13 page=0 chnl=15
char id=7913 x=23 y=238 width=12 height=15 xoffset=1 yoffset=4 xadvance=13 page=0 chnl=15
char id=7915 x=41 y=173 width=12 height=15 xoffset=1 yoffset=4 xadvance=13 page=0 chnl=15
char id=7919 x=50 y=146 width=12 height=15 xoffset=1 yoffset=4 xadvance=13 page=0 chnl=15
char id=236 x=56 y=125 width=4 height=15 xoffset=0 yoffset=4 xadvance=6 page=0 chnl=15
char id=237 x=62 y=125 width=4 height=15 xoffset=2 yoffset=4 xadvance=6 page=0 chnl=15
char id=7881 x=64 y=83 width=5 height=15 xoffset=0 yoffset=3 xadvance=4 page=0 chnl=15
char id=7883 x=64 y=100 width=2 height=18 xoffset=1 yoffset=4 xadvance=4 page=0 chnl=15
char id=297 x=14 y=275 width=7 height=15 xoffset=0 yoffset=4 xadvance=6 page=0 chnl=15
char id=242 x=14 y=292 width=10 height=15 xoffset=1 yoffset=4 xadvance=11 page=0 chnl=15
char id=243 x=23 y=275 width=10 height=15 xoffset=1 yoffset=4 xadvance=11 page=0 chnl=15
char id=7887 x=25 y=255 width=10 height=16 xoffset=1 yoffset=3 xadvance=11 page=0 chnl=15
char id=7885 x=14 y=309 width=10 height=14 xoffset=1 yoffset=8 xadvance=11 page=0 chnl=15
char id=245 x=14 y=325 width=10 height=15 xoffset=1 yoffset=4 xadvance=11 page=0 chnl=15
char id=417 x=40 y=190 width=12 height=11 xoffset=1 yoffset=8 xadvance=13 page=0 chnl=15
char id=7903 x=14 y=342 width=12 height=16 xoffset=1 yoffset=3 xadvance=13 page=0 chnl=15
char id=7901 x=26 y=292 width=12 height=15 xoffset=1 yoffset=4 xadvance=13 page=0 chnl=15
char id=7899 x=35 y=273 width=12 height=15 xoffset=1 yoffset=4 xadvance=13 page=0 chnl=15
char id=7905 x=26 y=309 width=12 height=15 xoffset=1 yoffset=4 xadvance=13 page=0 chnl=15
char id=7907 x=26 y=326 width=12 height=14 xoffset=1 yoffset=8 xadvance=13 page=0 chnl=15
char id=244 x=37 y=219 width=10 height=15 xoffset=1 yoffset=4 xadvance=11 page=0 chnl=15
char id=7895 x=37 y=236 width=10 height=18 xoffset=1 yoffset=1 xadvance=11 page=0 chnl=15
char id=7889 x=14 y=360 width=10 height=18 xoffset=1 yoffset=0 xadvance=11 page=0 chnl=15
char id=7891 x=14 y=380 width=10 height=18 xoffset=1 yoffset=0 xadvance=11 page=0 chnl=15
char id=7893 x=14 y=400 width=10 height=19 xoffset=1 yoffset=0 xadvance=11 page=0 chnl=15
char id=7897 x=14 y=421 width=10 height=18 xoffset=1 yoffset=4 xadvance=11 page=0 chnl=15
char id=225 x=37 y=256 width=10 height=15 xoffset=1 yoffset=4 xadvance=11 page=0 chnl=15
char id=224 x=14 y=441 width=10 height=15 xoffset=1 yoffset=4 xadvance=11 page=0 chnl=15
char id=7841 x=47 y=203 width=10 height=14 xoffset=1 yoffset=8 xadvance=11 page=0 chnl=15
char id=7843 x=55 y=163 width=10 height=16 xoffset=1 yoffset=3 xadvance=11 page=0 chnl=15
char id=227 x=64 y=142 width=10 height=15 xoffset=1 yoffset=4 xadvance=11 page=0 chnl=15
char id=7849 x=55 y=181 width=10 height=19 xoffset=1 yoffset=0 xadvance=11 page=0 chnl=15
char id=7859 x=68 y=100 width=10 height=19 xoffset=1 yoffset=0 xadvance=11 page=0 chnl=15
char id=7863 x=68 y=121 width=10 height=18 xoffset=1 yoffset=4 xadvance=11 page=0 chnl=15
char id=259 x=71 y=65 width=10 height=15 xoffset=1 yoffset=4 xadvance=11 page=0 chnl=15
char id=7861 x=81 y=40 width=10 height=18 xoffset=1 yoffset=1 xadvance=11 page=0 chnl=15
char id=7855 x=84 y=19 width=10 height=18 xoffset=1 yoffset=0 xadvance=11 page=0 chnl=15
char id=7857 x=24 y=458 width=10 height=18 xoffset=1 yoffset=0 xadvance=11 page=0 chnl=15
char id=7851 x=24 y=478 width=10 height=18 xoffset=1 yoffset=1 xadvance=11 page=0 chnl=15
char id=226 x=94 y=2 width=10 height=15 xoffset=1 yoffset=4 xadvance=11 page=0 chnl=15
char id=7845 x=26 y=360 width=10 height=18 xoffset=1 yoffset=0 xadvance=11 page=0 chnl=15
char id=7847 x=26 y=380 width=10 height=18 xoffset=1 yoffset=0 xadvance=11 page=0 chnl=15
char id=7853 x=26 y=400 width=10 height=18 xoffset=1 yoffset=4 xadvance=11 page=0 chnl=15
char id=32 x=23 y=255 width=0 height=0 xoffset=0 yoffset=18 xadvance=6 page=0 chnl=15
char id=7929 x=26 y=420 width=10 height=19 xoffset=0 yoffset=4 xadvance=10 page=0 chnl=15
char id=7923 x=36 y=441 width=10 height=19 xoffset=0 yoffset=4 xadvance=10 page=0 chnl=15
char id=253 x=36 y=462 width=10 height=19 xoffset=0 yoffset=4 xadvance=10 page=0 chnl=15
char id=7927 x=36 y=483 width=10 height=20 xoffset=0 yoffset=3 xadvance=10 page=0 chnl=15
char id=273 x=71 y=82 width=11 height=15 xoffset=1 yoffset=4 xadvance=11 page=0 chnl=15
char id=202 x=83 y=60 width=11 height=18 xoffset=2 yoffset=0 xadvance=13 page=0 chnl=15
char id=7870 x=93 y=39 width=11 height=18 xoffset=2 yoffset=0 xadvance=13 page=0 chnl=15
char id=7872 x=96 y=19 width=11 height=18 xoffset=2 yoffset=0 xadvance=13 page=0 chnl=15
char id=7874 x=38 y=342 width=11 height=18 xoffset=2 yoffset=0 xadvance=13 page=0 chnl=15
char id=7878 x=40 y=290 width=11 height=20 xoffset=2 yoffset=2 xadvance=13 page=0 chnl=15
char id=7876 x=40 y=312 width=11 height=18 xoffset=2 yoffset=0 xadvance=13 page=0 chnl=15
char id=201 x=49 y=219 width=11 height=18 xoffset=2 yoffset=0 xadvance=13 page=0 chnl=15
char id=200 x=49 y=239 width=11 height=18 xoffset=2 yoffset=0 xadvance=13 page=0 chnl=15
char id=7866 x=49 y=259 width=11 height=18 xoffset=2 yoffset=0 xadvance=13 page=0 chnl=15
char id=7864 x=38 y=362 width=11 height=18 xoffset=2 yoffset=4 xadvance=13 page=0 chnl=15
char id=7868 x=38 y=382 width=11 height=18 xoffset=2 yoffset=0 xadvance=13 page=0 chnl=15
char id=218 x=38 y=402 width=12 height=19 xoffset=2 yoffset=0 xadvance=14 page=0 chnl=15
char id=217 x=51 y=332 width=12 height=19 xoffset=2 yoffset=0 xadvance=14 page=0 chnl=15
char id=7910 x=51 y=353 width=12 height=19 xoffset=2 yoffset=0 xadvance=14 page=0 chnl=15
char id=7908 x=51 y=374 width=12 height=18 xoffset=2 yoffset=4 xadvance=14 page=0 chnl=15
char id=360 x=53 y=279 width=12 height=18 xoffset=2 yoffset=1 xadvance=14 page=0 chnl=15
char id=431 x=106 y=2 width=15 height=15 xoffset=2 yoffset=4 xadvance=17 page=0 chnl=15
char id=7916 x=53 y=299 width=15 height=19 xoffset=2 yoffset=0 xadvance=17 page=0 chnl=15
char id=7920 x=62 y=202 width=15 height=18 xoffset=2 yoffset=4 xadvance=17 page=0 chnl=15
char id=7914 x=67 y=159 width=15 height=19 xoffset=2 yoffset=0 xadvance=17 page=0 chnl=15
char id=7912 x=67 y=180 width=15 height=19 xoffset=2 yoffset=0 xadvance=17 page=0 chnl=15
char id=7918 x=62 y=222 width=15 height=18 xoffset=2 yoffset=1 xadvance=17 page=0 chnl=15
char id=205 x=62 y=242 width=4 height=18 xoffset=1 yoffset=0 xadvance=6 page=0 chnl=15
char id=204 x=67 y=262 width=4 height=18 xoffset=1 yoffset=0 xadvance=6 page=0 chnl=15
char id=7880 x=68 y=242 width=5 height=18 xoffset=1 yoffset=0 xadvance=6 page=0 chnl=15
char id=7882 x=80 y=99 width=2 height=18 xoffset=2 yoffset=4 xadvance=6 page=0 chnl=15
char id=296 x=80 y=119 width=7 height=18 xoffset=-1 yoffset=0 xadvance=6 page=0 chnl=15
char id=211 x=84 y=80 width=14 height=19 xoffset=1 yoffset=0 xadvance=16 page=0 chnl=15
char id=210 x=96 y=59 width=14 height=19 xoffset=1 yoffset=0 xadvance=16 page=0 chnl=15
char id=7886 x=109 y=19 width=14 height=19 xoffset=1 yoffset=0 xadvance=16 page=0 chnl=15
char id=7884 x=80 y=139 width=14 height=18 xoffset=1 yoffset=4 xadvance=16 page=0 chnl=15
char id=213 x=89 y=101 width=14 height=18 xoffset=1 yoffset=1 xadvance=16 page=0 chnl=15
char id=416 x=123 y=2 width=16 height=15 xoffset=1 yoffset=4 xadvance=17 page=0 chnl=15
char id=7898 x=100 y=80 width=16 height=19 xoffset=1 yoffset=0 xadvance=17 page=0 chnl=15
char id=7900 x=112 y=40 width=16 height=19 xoffset=1 yoffset=0 xadvance=17 page=0 chnl=15
char id=7906 x=125 y=19 width=16 height=18 xoffset=1 yoffset=4 xadvance=17 page=0 chnl=15
char id=7904 x=48 y=423 width=16 height=18 xoffset=1 yoffset=1 xadvance=17 page=0 chnl=15
char id=7902 x=52 y=394 width=16 height=19 xoffset=1 yoffset=0 xadvance=17 page=0 chnl=15
char id=193 x=48 y=443 width=14 height=18 xoffset=0 yoffset=0 xadvance=13 page=0 chnl=15
char id=192 x=48 y=463 width=14 height=18 xoffset=0 yoffset=0 xadvance=13 page=0 chnl=15
char id=7840 x=48 y=483 width=14 height=18 xoffset=0 yoffset=4 xadvance=13 page=0 chnl=15
char id=195 x=64 y=443 width=14 height=18 xoffset=0 yoffset=1 xadvance=13 page=0 chnl=15
char id=7842 x=66 y=415 width=14 height=18 xoffset=0 yoffset=0 xadvance=13 page=0 chnl=15
char id=258 x=64 y=463 width=14 height=18 xoffset=0 yoffset=0 xadvance=13 page=0 chnl=15
char id=7862 x=64 y=483 width=14 height=20 xoffset=0 yoffset=2 xadvance=13 page=0 chnl=15
char id=7858 x=65 y=320 width=14 height=18 xoffset=0 yoffset=0 xadvance=13 page=0 chnl=15
char id=7854 x=70 y=282 width=14 height=18 xoffset=0 yoffset=0 xadvance=13 page=0 chnl=15
char id=7860 x=73 y=262 width=14 height=18 xoffset=0 yoffset=0 xadvance=13 page=0 chnl=15
char id=7856 x=75 y=242 width=14 height=18 xoffset=0 yoffset=0 xadvance=13 page=0 chnl=15
char id=194 x=79 y=201 width=14 height=18 xoffset=0 yoffset=0 xadvance=13 page=0 chnl=15
char id=7844 x=79 y=221 width=14 height=18 xoffset=0 yoffset=0 xadvance=13 page=0 chnl=15
char id=7846 x=84 y=159 width=14 height=18 xoffset=0 yoffset=0 xadvance=13 page=0 chnl=15
char id=7850 x=84 y=179 width=14 height=18 xoffset=0 yoffset=0 xadvance=13 page=0 chnl=15
char id=7852 x=96 y=121 width=14 height=20 xoffset=0 yoffset=2 xadvance=13 page=0 chnl=15
char id=7848 x=105 y=101 width=14 height=18 xoffset=0 yoffset=0 xadvance=13 page=0 chnl=15
char id=212 x=118 y=61 width=14 height=19 xoffset=1 yoffset=0 xadvance=16 page=0 chnl=15
char id=7888 x=130 y=39 width=14 height=19 xoffset=1 yoffset=0 xadvance=16 page=0 chnl=15
char id=7890 x=143 y=2 width=14 height=19 xoffset=1 yoffset=0 xadvance=16 page=0 chnl=15
char id=7892 x=65 y=340 width=14 height=19 xoffset=1 yoffset=0 xadvance=16 page=0 chnl=15
char id=7896 x=65 y=361 width=14 height=20 xoffset=1 yoffset=2 xadvance=16 page=0 chnl=15
char id=7894 x=70 y=383 width=14 height=19 xoffset=1 yoffset=0 xadvance=16 page=0 chnl=15
char id=7928 x=80 y=435 width=13 height=18 xoffset=0 yoffset=1 xadvance=13 page=0 chnl=15
char id=221 x=82 y=404 width=13 height=18 xoffset=0 yoffset=0 xadvance=13 page=0 chnl=15
char id=7922 x=80 y=455 width=13 height=18 xoffset=0 yoffset=0 xadvance=13 page=0 chnl=15
char id=7924 x=80 y=475 width=13 height=18 xoffset=0 yoffset=4 xadvance=13 page=0 chnl=15
char id=7926 x=81 y=302 width=13 height=18 xoffset=0 yoffset=0 xadvance=13 page=0 chnl=15
char id=272 x=80 y=495 width=14 height=15 xoffset=0 yoffset=4 xadvance=14 page=0 chnl=15
char id=49 x=26 y=441 width=6 height=15 xoffset=2 yoffset=4 xadvance=11 page=0 chnl=15
char id=50 x=118 y=82 width=10 height=15 xoffset=1 yoffset=4 xadvance=11 page=0 chnl=15
char id=51 x=86 y=282 width=10 height=15 xoffset=1 yoffset=4 xadvance=11 page=0 chnl=15
char id=52 x=89 y=262 width=10 height=15 xoffset=0 yoffset=4 xadvance=11 page=0 chnl=15
char id=53 x=91 y=241 width=10 height=15 xoffset=1 yoffset=4 xadvance=11 page=0 chnl=15
char id=54 x=95 y=199 width=10 height=15 xoffset=1 yoffset=4 xadvance=11 page=0 chnl=15
char id=55 x=143 y=23 width=10 height=14 xoffset=1 yoffset=4 xadvance=11 page=0 chnl=15
char id=56 x=95 y=216 width=10 height=15 xoffset=1 yoffset=4 xadvance=11 page=0 chnl=15
char id=57 x=100 y=143 width=10 height=15 xoffset=1 yoffset=4 xadvance=11 page=0 chnl=15
char id=48 x=100 y=160 width=10 height=15 xoffset=1 yoffset=4 xadvance=11 page=0 chnl=15
char id=58 x=16 y=156 width=2 height=11 xoffset=2 yoffset=8 xadvance=6 page=0 chnl=15
char id=63 x=100 y=177 width=10 height=15 xoffset=1 yoffset=4 xadvance=11 page=0 chnl=15
char id=47 x=28 y=342 width=6 height=15 xoffset=0 yoffset=4 xadvance=6 page=0 chnl=15
char id=8221 x=74 y=40 width=5 height=5 xoffset=1 yoffset=4 xadvance=7 page=0 chnl=15
char id=8217 x=49 y=279 width=2 height=5 xoffset=1 yoffset=4 xadvance=4 page=0 chnl=15
char id=62 x=53 y=320 width=10 height=10 xoffset=1 yoffset=6 xadvance=12 page=0 chnl=15
char id=60 x=2 y=498 width=10 height=10 xoffset=1 yoffset=6 xadvance=12 page=0 chnl=15
char id=91 x=81 y=322 width=4 height=19 xoffset=1 yoffset=4 xadvance=6 page=0 chnl=15
char id=93 x=81 y=343 width=4 height=19 xoffset=0 yoffset=4 xadvance=6 page=0 chnl=15
char id=125 x=86 y=364 width=6 height=19 xoffset=0 yoffset=4 xadvance=7 page=0 chnl=15
char id=124 x=87 y=322 width=2 height=19 xoffset=2 yoffset=4 xadvance=5 page=0 chnl=15
char id=92 x=38 y=423 width=6 height=15 xoffset=0 yoffset=4 xadvance=6 page=0 chnl=15
char id=32 x=0 y=0 width=0 height=0 xoffset=0 yoffset=4 xadvance=6 page=0 chnl=15
kernings count=104
kerning first=32 second=65 amount=-1
kerning first=32 second=84 amount=0
kerning first=32 second=89 amount=0
kerning first=49 second=49 amount=-1
kerning first=65 second=32 amount=-1
kerning first=65 second=84 amount=-1
kerning first=65 second=86 amount=-1
kerning first=65 second=87 amount=-1
kerning first=65 second=89 amount=-1
kerning first=65 second=118 amount=0
kerning first=65 second=119 amount=0
kerning first=65 second=121 amount=0
kerning first=65 second=8217 amount=-1
kerning first=70 second=44 amount=-2
kerning first=70 second=46 amount=-2
kerning first=70 second=65 amount=-1
kerning first=76 second=32 amount=-1
kerning first=76 second=84 amount=-1
kerning first=76 second=86 amount=-1
kerning first=76 second=87 amount=-1
kerning first=76 second=89 amount=-1
kerning first=76 second=121 amount=-1
kerning first=76 second=8217 amount=-1
kerning first=80 second=32 amount=0
kerning first=80 second=44 amount=-3
kerning first=80 second=46 amount=-3
kerning first=80 second=65 amount=-1
kerning first=82 second=84 amount=0
kerning first=82 second=86 amount=0
kerning first=82 second=87 amount=0
kerning first=82 second=89 amount=0
kerning first=84 second=32 amount=0
kerning first=84 second=44 amount=-2
kerning first=84 second=45 amount=-1
kerning first=84 second=46 amount=-2
kerning first=84 second=58 amount=-2
kerning first=84 second=59 amount=-2
kerning first=84 second=65 amount=-1
kerning first=84 second=79 amount=0
kerning first=84 second=97 amount=-2
kerning first=84 second=99 amount=-2
kerning first=84 second=101 amount=-2
kerning first=84 second=105 amount=-1
kerning first=84 second=111 amount=-2
kerning first=84 second=114 amount=-1
kerning first=84 second=115 amount=-2
kerning first=84 second=117 amount=-1
kerning first=84 second=119 amount=-1
kerning first=84 second=121 amount=-1
kerning first=86 second=44 amount=-2
kerning first=86 second=45 amount=-1
kerning first=86 second=46 amount=-2
kerning first=86 second=58 amount=-1
kerning first=86 second=59 amount=-1
kerning first=86 second=65 amount=-1
kerning first=86 second=97 amount=-1
kerning first=86 second=101 amount=-1
kerning first=86 second=105 amount=0
kerning first=86 second=111 amount=-1
kerning first=86 second=114 amount=-1
kerning first=86 second=117 amount=-1
kerning first=86 second=121 amount=-1
kerning first=87 second=44 amount=-1
kerning first=87 second=45 amount=0
kerning first=87 second=46 amount=-1
kerning first=87 second=58 amount=0
kerning first=87 second=59 amount=0
kerning first=87 second=65 amount=-1
kerning first=87 second=97 amount=-1
kerning first=87 second=101 amount=0
kerning first=87 second=105 amount=0
kerning first=87 second=111 amount=0
kerning first=87 second=114 amount=0
kerning first=87 second=117 amount=0
kerning first=87 second=121 amount=0
kerning first=89 second=32 amount=0
kerning first=89 second=44 amount=-3
kerning first=89 second=45 amount=-2
kerning first=89 second=46 amount=-3
kerning first=89 second=58 amount=-1
kerning first=89 second=59 amount=-1
kerning first=89 second=65 amount=-1
kerning first=89 second=97 amount=-1
kerning first=89 second=101 amount=-2
kerning first=89 second=105 amount=-1
kerning first=89 second=111 amount=-2
kerning first=89 second=112 amount=-1
kerning first=89 second=113 amount=-2
kerning first=89 second=117 amount=-1
kerning first=89 second=118 amount=-1
kerning first=102 second=102 amount=0
kerning first=102 second=8217 amount=0
kerning first=114 second=44 amount=-1
kerning first=114 second=46 amount=-1
kerning first=114 second=8217 amount=1
kerning first=118 second=44 amount=-1
kerning first=118 second=46 amount=-1
kerning first=119 second=44 amount=-1
kerning first=119 second=46 amount=-1
kerning first=121 second=44 amount=-1
kerning first=121 second=46 amount=-1
kerning first=8217 second=32 amount=-1
kerning first=8217 second=115 amount=0
kerning first=8217 second=8217 amount=0