info face=font-digital size=22 bold=0 italic=0 charset= unicode= stretchH=100 smooth=1 aa=1 padding=2,2,2,2 spacing=0,0 outline=0
common lineHeight=12 base=15 scaleW=131 scaleH=21 pages=1 packed=0
page id=0 file="font-digital.png"
chars count=11
char id=49 x=2 y=2 width=4 height=17 xoffset=1 yoffset=0 xadvance=4 page=0 chnl=15
char id=50 x=8 y=2 width=11 height=17 xoffset=1 yoffset=0 xadvance=10 page=0 chnl=15
char id=51 x=21 y=2 width=11 height=17 xoffset=1 yoffset=0 xadvance=10 page=0 chnl=15
char id=52 x=34 y=2 width=11 height=17 xoffset=1 yoffset=0 xadvance=10 page=0 chnl=15
char id=53 x=47 y=2 width=11 height=17 xoffset=1 yoffset=0 xadvance=10 page=0 chnl=15
char id=54 x=60 y=2 width=11 height=17 xoffset=1 yoffset=0 xadvance=10 page=0 chnl=15
char id=55 x=73 y=2 width=11 height=17 xoffset=1 yoffset=0 xadvance=10 page=0 chnl=15
char id=56 x=86 y=2 width=11 height=17 xoffset=1 yoffset=0 xadvance=10 page=0 chnl=15
char id=57 x=99 y=2 width=11 height=17 xoffset=1 yoffset=0 xadvance=10 page=0 chnl=15
char id=48 x=112 y=2 width=11 height=17 xoffset=1 yoffset=0 xadvance=10 page=0 chnl=15
char id=58 x=125 y=2 width=4 height=10 xoffset=1 yoffset=3 xadvance=4 page=0 chnl=15
char id=32 x=0 y=0 width=0 height=0 xoffset=1 yoffset=3 xadvance=6 page=0 chnl=15